#  GEMS3K v.3.3 r.1036 (rc) 
# File: C:/GEMSFITS-Win/Tests/Tut_pHedge/GEMS/NoAirTestEuO1-dbr-0-0000.dat
# Comments can be marked with # $ ; as the first character in the line
# DBR text input file for node system recipe and speciation data
# (should be read only after the DCH and the IPM files)

# (1): Flags controlling GEM IPM-3 operation and data exchange
# NodeHandle: Node identification handle
<NodeHandle>  0
# NodeTypeHY:  Node type code (hydraulic), not used on TNode level; see typedef NODETYPE
<NodeTypeHY>  0
# NodeTypeMT:  Node type (mass transport), not used on TNode level; see typedef NODETYPE
<NodeTypeMT>  0
# NodeStatusFMT:  Node status code in FMT part, not used on TNode level; see typedef NODECODEFMT
<NodeStatusFMT>  -1
# NodeStatusCH: Node status code and control in GEM input and output; see typedef NODECODECH
<NodeStatusCH>  1
# IterDone:  Number of iterations performed by GEM IPM in the last run (GEM output)
<IterDone>  33

## (2) Chemical scalar properies of the node system
# TK: Node temperature T, Kelvin. This value must always be provided (GEM input)
<TK>  298.15
# P:  Node Pressure P, Pa. This value must always be provided (GEM input)
<P>  100000
# Vs: Volume V of reactive subsystem, m3 (GEM output)
<Vs>  0.124934
# Vi: Volume of inert subsystem, m3 (mass transport)
<Vi>  0
# Ms: Mass of reactive subsystem, kg (GEM output)
<Ms>  1.14611
# Mi: Mass of inert subsystem, kg (mass transport)
<Mi>  0
# Hs: Total enthalpy of reactive subsystem, J (reserved)
<Hs>  0
# Hi: Total enthalpy of inert subsystem, J (reserved, mass transport) 
<Hi>  0
# Gs: Total Gibbs energy of the reactive subsystem, J/(RT) (GEM output)
<Gs>  -5284.28
# IS: Effective aqueous ionic strength, molal (GEM output)
<IS>  0.100726
# pH: pH of aqueous solution in molal activity scale (GEM output)
<pH>  7.26091
# pe: pe of aqueous solution in molal activity scale (GEM output)
<pe>  -4.71778
# Eh: Eh of aqueous solution, V (GEM output)
<Eh>  -0.278539
# Tm: Actual total simulation time, s (kinetics, metastability, transport)
<Tm>  0
# dt: Actual time step, s (kinetics, metastability, transport)
<dt>  0

### Arrays: for dimensions and index lists, see Section (2) of DCH file

## (4) Data for Independent Components
#  'Cl' 'Clai' 'Essi' 'Esvi' 'Eswi' 'Eu' 'H' 'Na' 'Nit' 'O' 'Zz' 
# bIC: Bulk composition of reactive subsystem (main GEM input), moles of ICs [nICb]
<bIC>
0.10000001 0.000224972394787632 1.9997546203345e-006 3.99950924066901e-005 3.99950924066901e-005 1.00000003347486e-009 110.217527009783 0.100225972394788 10 55.5087640413916 0 

# rMB: Mass balance residuals, moles (GEM output) [nICb]
<rMB>
-1.9531801065054e-017 0 -1.30388839202288e-022 -1.19212652984949e-021 5.96063264924744e-022 1.90999276175226e-025 1.96255403583491e-014 -1.0650905465124e-017 0 -1.00002821453076e-014 7.68632334799661e-017 

# uIC: Chemical potentials of ICs in equilibrium (dual solution), J/(RT) (GEM output) [nICb]
<uIC>
319.028185972454 88.9327198628756 -21.4910931582553 -18.4948737049836 -18.877872429496 -227.340893426053 -5.85576698623571 -97.3213929588306 -4.10391954158681e-006 -83.9694666514665 -10.8630875844796 

# bSP: Output bulk composition of the equilibrium solid part of the system, moles 
<bSP>
0 0 0 0 0 0 0 0 0 0 0 

## (5) Data for Dependent Components
#  'Eu+2' 'Eu(OH)+2' 'Eu+3' 'EuO+' 'EuO2-' 'EuO2H@' '=iSsO-' '=iSsOEu(OH)2@' '=iSsOEu(OH)3-' '=iSsOEu+2' '=iSsOEuOH+' '=iSsOH2+' '=iSsOH@' '=iSvO-' '=iSvOEu+2' '=iSvOH2+' '=iSvOH@' '=iSwO-' '=iSwOH2+' '=iSwOH@' 'ClaiEu@' 'ClaiNa@' 'Na+' 'NaOH@' 'ClO4-' 'H2@' 'N2@' 'O2@' 'OH-' 'H+' 'H2O@' 'H2' 'N2' 'O2' 'Eu(OH)3(am)' 'Eu(OH)3(cr)' 
# xDC: Speciation - amounts of DCs in equilibrium (primal solution), moles (GEM output/input) [nDCb]
<xDC>
9.55967794647242e-014 1.74532579582056e-012 5.26556756965247e-012 1.90532173462275e-013 5.01655971636564e-020 2.14690267081665e-017 1.8388645185083e-006 8.68019409427975e-011 9.9567125753326e-015 1.31623169899999e-010 7.56663387365651e-010 8.76471717924403e-011 1.5982735619949e-007 3.67948304526893e-005 1.04877435529829e-011 1.75379751278227e-009 3.19849766874444e-006 1.25722936632466e-009 3.78129037900535e-005 2.18093138727024e-006 7.11679116326062e-012 0.000224972373437258 0.100000990648853 9.37249780319236e-009 0.10000001 6.3773621012171e-009 0.00064475901914831 0 2.31289079140656e-007 6.9786648004389e-008 55.1086817698583 4.09885922914573e-005 4.99935524098085 0 0 0 

# gam: Activity coefficients of DCs in their respective phases (GEM output/input) [nDCb]
<gam>
0.370650853037568 0.370650853037568 0.107195079493747 0.780259555427865 0.780259555427865 0.999993383784107 1.00363984569934 1.00363984569934 1.00363984569934 1.00363984569934 1.00363984569934 1.00363984569934 1.00363984569934 1.00363984569934 1.00363984569934 1.00363984569934 1.00363984569934 1.00363984569934 1.00363984569934 1.00363984569934 1.00363984569934 1.00363984569934 0.780259555427865 0.999993383784107 0.780259555427865 0.999993383784107 0.999993383784107 0.999993383784107 0.780259555427865 0.780259555427865 0.999986751537965 1 1 1 1 1 

# dll: Lower metastability restrictions on amounts of DCs, moles (GEM input) [nDCb]
<dll>
0 0 0 0 0 0 0 0 0 0 0 0 0 0 0 0 0 0 0 0 0 0 0 0 0 0 0 0 0 0 0 0 0 0 0 0 

# dul: Upper metastability constraints on amounts of DCs, moles (GEM input) [nDCb]
<dul>
1000000 1000000 1000000 1000000 1000000 1000000 1000000 1000000 1000000 1000000 1000000 1000000 1000000 1000000 1000000 1000000 1000000 1000000 1000000 1000000 1000000 1000000 1000000 1000000 1000000 1000000 1000000 1000000 1000000 1000000 1000000 1000000 1000000 1000000 0 0 

## (6) Data for Phases
#  'aq_gen' 'gas_gen' 'Eu(OH)3am' 'Eu(OH)3cr' 
# aPH: Specific surface areas of phases, m2/kg (GEM input) [nPHb]
<aPH>
0 0 0 0 

# xPH: Amounts of phases in equilibrium state, moles (GEM output) [nPHb]
<xPH>
55.3096348086792 4.99939622957314 0 0 

# vPS: Volumes of multicomponent phases, m3 (GEM output) [nPSb]
<vPS>
0.00100001671238406 0.123933590530267 

# mPS: Masses of multicomponent phases, kg (GEM output) [nPSb]
<mPS>
1.00606296038456 0.140049016357884 

# xPA: Amount of carrier (sorbent or solvent) in multicomponent phases, moles (GEM output) [nPSb]
<xPA>
55.1086817698583 0 

# amru: Upper AMRs on masses of DCs (kg) [nPSb]  
<amru>
1000000 1000000 

# amrl: Lower AMRs on masses of DCs (kg) [nPSb]
<amrl>
0 0 

# bPS: Bulk elemental compositions of multicomponent phases, moles (GEM output) [nPSb*nICb]
#  'Cl' 'Clai' 'Essi' 'Esvi' 'Eswi' 'Eu' 'H' 'Na' 'Nit' 'O' 'Zz' 
<bPS>
0.10000001 0.000224972394787632 1.9997546203345e-006 3.99950924066901e-005 3.99950924066901e-005 1.00000003342469e-009 110.217445032599 0.100225972394788 0.00128951803829662 55.5087640413916 -7.68632334799661e-017 
0 0 0 0 0 0 8.19771845829146e-005 0 9.9987104819617 0 0 

# End of file
